<svg width="9" height="6" viewBox="0 0 9 6"  xmlns="http://www.w3.org/2000/svg">
<path fill-rule="evenodd" clip-rule="evenodd" d="M8.7227 1.08634C8.9712 0.837824 8.9712 0.434902 8.7227 0.186387C8.4742 -0.0621288 8.07125 -0.0621288 7.82275 0.186387L4.45455 3.55459L1.08634 0.186387C0.837824 -0.0621288 0.434902 -0.0621288 0.186387 0.186387C-0.0621289 0.434902 -0.0621289 0.837824 0.186387 1.08634L4.00457 4.90452C4.25309 5.15304 4.65601 5.15304 4.90452 4.90452L8.7227 1.08634Z" />
</svg>
