<svg width="34" height="34" viewBox="0 0 34 34" fill="none" xmlns="http://www.w3.org/2000/svg">
<g clip-path="url(#clip0)">
<path fill-rule="evenodd" clip-rule="evenodd" d="M31.7871 28.7056L30.996 29.997C29.5759 32.3149 26.5456 33.0428 24.2277 31.6228L22.9363 30.8316C20.6183 29.4115 19.8904 26.3813 21.3105 24.0633L22.1016 22.7719C23.5217 20.4539 26.552 19.7261 28.87 21.1461L30.1614 21.9373C32.4793 23.3574 33.2072 26.3876 31.7871 28.7056ZM30.8186 28.1122C31.9109 26.3292 31.351 23.9982 29.568 22.9058L28.2766 22.1147C26.4935 21.0223 24.1626 21.5822 23.0702 23.3653L22.279 24.6567C21.1867 26.4397 21.7466 28.7707 23.5296 29.863L24.821 30.6542C26.6041 31.7466 28.9351 31.1867 30.0274 29.4036L30.8186 28.1122Z" fill="#E67861"/>
<path fill-rule="evenodd" clip-rule="evenodd" d="M28.2879 27.894L28.5649 27.442C29.111 26.5505 28.8311 25.385 27.9396 24.8388L27.2293 24.4037C26.3378 23.8575 25.1723 24.1374 24.6261 25.029L24.3492 25.481C23.803 26.3725 24.083 27.538 24.9745 28.0841L25.6848 28.5193C26.5763 29.0655 27.7418 28.7855 28.2879 27.894ZM29.5334 28.0354C30.4073 26.6089 29.9594 24.7441 28.5329 23.8703L27.8227 23.4351C26.3962 22.5612 24.5314 23.0092 23.6575 24.4356L23.3806 24.8876C22.5067 26.314 22.9547 28.1788 24.3811 29.0527L25.0914 29.4878C26.5178 30.3617 28.3826 29.9138 29.2565 28.4874L29.5334 28.0354Z" fill="#5C6D7D"/>
<path d="M23.7675 32.2289L24.3608 31.2603L23.3923 30.6669L22.7989 31.6355L23.7675 32.2289Z" fill="#E67861"/>
<path d="M29.8593 22.2851L30.4526 21.3166L29.4841 20.7232L28.8907 21.6918L29.8593 22.2851Z" fill="#E67861"/>
<path d="M32.4823 22.1507L32.4852 26.6852L31.4147 25.5378L31.3494 22.0854C31.3731 21.6703 31.2739 21.2573 31.0641 20.8982C30.4749 19.8897 29.2443 19.5893 28.2359 20.1784L25.0303 21.7154L23.5168 21.2811L27.6637 19.1987C28.2145 18.8775 28.8476 18.7255 29.4842 18.7614C31.2768 18.8625 32.5834 20.3581 32.4823 22.1507Z" fill="#E67861"/>
<path d="M25.4691 33.5985L29.5102 31.5415L28.0018 31.1089L24.8964 32.6189C24.5373 32.8285 24.1243 32.9277 23.7091 32.9039C22.543 32.8371 21.7165 31.8772 21.7833 30.7112L21.6966 27.1572L20.6222 26.0061L20.6505 30.6464C20.6146 31.283 20.7667 31.9161 21.0878 32.4669C21.9921 34.018 23.918 34.5028 25.4691 33.5985Z" fill="#E67861"/>
<path fill-rule="evenodd" clip-rule="evenodd" d="M12.7349 10.053L11.9437 11.3444C10.5237 13.6624 7.49338 14.3902 5.17542 12.9702L3.88402 12.179C1.56606 10.7589 0.838179 7.72867 2.25825 5.4107L3.04941 4.11931C4.46948 1.80134 7.49975 1.07346 9.81771 2.49353L11.1091 3.28469C13.4271 4.70476 14.155 7.73504 12.7349 10.053ZM11.7663 9.45963C12.8587 7.67658 12.2988 5.3456 10.5157 4.25324L9.22435 3.46208C7.4413 2.36972 5.11032 2.92963 4.01796 4.71268L3.2268 6.00407C2.13444 7.78712 2.69435 10.1181 4.47739 11.2105L5.76879 12.0016C7.55184 13.094 9.88282 12.5341 10.9752 10.751L11.7663 9.45963Z" fill="#5C6D7D"/>
<path fill-rule="evenodd" clip-rule="evenodd" d="M9.23571 9.2414L9.51261 8.78941C10.0588 7.89789 9.77884 6.7324 8.88731 6.18622L8.17704 5.75108C7.28552 5.2049 6.12003 5.48486 5.57385 6.37638L5.29694 6.82837C4.75076 7.71989 5.03072 8.88538 5.92224 9.43156L6.63251 9.8667C7.52403 10.4129 8.68952 10.1329 9.23571 9.2414ZM10.4812 9.38278C11.355 7.95634 10.9071 6.09156 9.48068 5.21767L8.77041 4.78253C7.34398 3.90864 5.47919 4.35657 4.6053 5.78301L4.3284 6.235C3.45451 7.66144 3.90244 9.52622 5.32887 10.4001L6.03914 10.8352C7.46558 11.7091 9.33036 11.2612 10.2043 9.83477L10.4812 9.38278Z" fill="#E67861"/>
<path d="M4.71522 13.5763L5.30859 12.6078L4.34005 12.0144L3.74668 12.983L4.71522 13.5763Z" fill="#5C6D7D"/>
<path d="M10.807 3.63255L11.4004 2.664L10.4318 2.07063L9.83848 3.03918L10.807 3.63255Z" fill="#5C6D7D"/>
<path d="M13.4301 3.49812L13.4329 8.0326L12.3624 6.88524L12.2972 3.43281C12.3208 3.01764 12.2216 2.60467 12.0118 2.24559C11.4227 1.23705 10.1921 0.936667 9.18363 1.52581L5.97807 3.06275L4.46458 2.62847L8.61144 0.546052C9.16225 0.224921 9.79535 0.0728499 10.4319 0.108764C12.2245 0.209891 13.5312 1.70551 13.4301 3.49812Z" fill="#5C6D7D"/>
<path d="M6.41641 14.9458L10.4575 12.8888L8.94907 12.4562L5.84367 13.9662C5.48455 14.1759 5.07158 14.2751 4.65638 14.2513C3.49028 14.1845 2.66374 13.2246 2.73055 12.0585L2.64385 8.50462L1.56951 7.35351L1.5978 11.9938C1.56189 12.6304 1.71396 13.2634 2.03509 13.8143C2.93939 15.3654 4.86531 15.8501 6.41641 14.9458Z" fill="#5C6D7D"/>
<path d="M15.761 24.6649C15.7542 24.585 15.7446 24.5057 15.7355 24.4264C15.7191 24.2966 15.6987 24.1674 15.6788 24.0388C15.6516 23.8835 15.6188 23.7305 15.5819 23.5792C15.5559 23.471 15.5309 23.3627 15.4998 23.2551L15.4941 23.2381C15.434 23.0341 15.3632 22.8346 15.2861 22.638C15.2754 22.6108 15.2669 22.5813 15.2555 22.5547C15.1722 22.3495 15.0787 22.1501 14.9779 21.954C14.9699 21.9381 14.9631 21.9211 14.9546 21.9053C14.8481 21.7024 14.7325 21.5086 14.6084 21.3148C14.6022 21.3057 14.5971 21.2961 14.5908 21.2865C14.4679 21.0995 14.3364 20.9193 14.1976 20.7442C14.1834 20.7289 14.1738 20.7136 14.1624 20.7C14.0344 20.5413 13.8984 20.39 13.7584 20.2427C13.7306 20.2138 13.7057 20.1826 13.6774 20.1543C13.5584 20.033 13.432 19.9197 13.3045 19.8069C13.2478 19.7576 13.1968 19.7049 13.1396 19.6567C13.0399 19.5734 12.9339 19.4986 12.8302 19.4204C12.7395 19.3524 12.6523 19.281 12.5588 19.2176C12.4766 19.1609 12.3888 19.1133 12.3055 19.0612C12.1921 18.9915 12.0856 18.9178 11.9706 18.8549C11.9621 18.8498 11.953 18.8464 11.9445 18.8419C11.8992 18.8169 11.8504 18.7971 11.8045 18.7733C11.6425 18.6894 11.4793 18.6073 11.3115 18.5359C11.2407 18.5053 11.1659 18.4792 11.0934 18.4531C10.946 18.3965 10.7998 18.3398 10.6491 18.2905C10.5635 18.2633 10.4751 18.2435 10.3879 18.2197C10.2468 18.1806 10.1045 18.1403 9.96175 18.1097C9.86428 18.0888 9.76455 18.0757 9.66595 18.0587C9.52995 18.0361 9.39451 18.0117 9.25738 17.9964C9.14405 17.9834 9.02675 17.9788 8.91115 17.9709C8.79555 17.963 8.66918 17.9545 8.54678 17.9528C8.50711 17.9528 8.46801 17.9465 8.42778 17.9465C8.32011 17.9465 8.21471 17.9579 8.10818 17.963C8.02318 17.9669 7.93818 17.9686 7.85261 17.9754C7.66448 17.9902 7.47975 18.014 7.29615 18.0429C7.25478 18.0491 7.21341 18.0542 7.17148 18.0616C6.95763 18.0993 6.74726 18.1458 6.54021 18.201C6.52661 18.2044 6.51301 18.2061 6.49998 18.2095L6.48015 18.2157C6.25879 18.2769 6.0419 18.3479 5.82961 18.4288L5.77295 18.448C5.56066 18.5308 5.35283 18.6228 5.14961 18.724C5.13205 18.7331 5.11448 18.7404 5.09748 18.7495C4.89858 18.8504 4.70591 18.9609 4.51835 19.0787C4.49681 19.0923 4.47528 19.1042 4.45431 19.1178C4.27751 19.2312 4.10695 19.3536 3.94091 19.4816C3.91031 19.5054 3.87801 19.527 3.84798 19.5513C3.69951 19.6692 3.55785 19.795 3.41958 19.9236C3.37538 19.9644 3.33005 20.0024 3.28755 20.0438C3.17081 20.1571 3.06088 20.2784 2.95151 20.3996C2.89485 20.4631 2.83818 20.5232 2.78151 20.5878C2.69425 20.692 2.61151 20.8025 2.53275 20.9113C2.46701 20.9986 2.39788 21.0813 2.33611 21.1743C2.26755 21.274 2.20805 21.38 2.14458 21.4837C2.08111 21.5874 2.02218 21.6707 1.96835 21.767C1.96438 21.7744 1.96155 21.7823 1.95758 21.7891C1.82611 22.0326 1.70839 22.2832 1.60511 22.5399C1.57621 22.6108 1.55298 22.6822 1.52635 22.7536C1.45325 22.9513 1.38751 23.1502 1.33085 23.3576C1.30875 23.4387 1.28778 23.5191 1.26795 23.6007C1.21921 23.807 1.18011 24.0161 1.14838 24.228C1.13705 24.3034 1.12288 24.3776 1.11438 24.4547C1.07974 24.7394 1.06182 25.0258 1.06055 25.3126C1.06055 25.5285 1.07358 25.7444 1.09341 25.9603C1.10021 26.0402 1.10985 26.1196 1.11891 26.1989C1.13535 26.3287 1.15575 26.4579 1.17558 26.5865C1.20278 26.7418 1.23565 26.8948 1.27248 27.0461C1.29855 27.1543 1.32348 27.2625 1.35465 27.3702L1.36031 27.3872C1.42095 27.5918 1.49178 27.7918 1.56885 27.9884C1.57905 28.0156 1.58755 28.0451 1.59831 28.07C1.68218 28.2763 1.77625 28.4775 1.87768 28.6741C1.88561 28.6888 1.89185 28.7041 1.89921 28.7189C2.00688 28.9236 2.1234 29.1221 2.24885 29.3144C2.25395 29.3224 2.25791 29.3303 2.26301 29.3377C2.38711 29.5269 2.52028 29.7094 2.65968 29.8868C2.66931 29.8987 2.67781 29.9111 2.68745 29.923C2.81665 30.084 2.95491 30.2375 3.09771 30.3871C3.12265 30.4138 3.14588 30.4438 3.17195 30.4687C3.29321 30.5928 3.42241 30.7084 3.55275 30.8235C3.60545 30.8705 3.65531 30.9209 3.70971 30.9663C3.81228 31.0524 3.92221 31.13 4.02988 31.2105C4.11658 31.2757 4.19988 31.3448 4.29055 31.406C4.38121 31.4672 4.46565 31.5137 4.55291 31.5681C4.66171 31.6355 4.76768 31.7075 4.87988 31.7692C4.88725 31.7732 4.89518 31.776 4.90198 31.78C5.14543 31.9115 5.39611 32.0292 5.65281 32.1325C5.72365 32.1614 5.79505 32.1846 5.86645 32.2112C6.06421 32.2843 6.26311 32.3501 6.47051 32.4067C6.55155 32.4288 6.63201 32.4498 6.71361 32.4696C6.91988 32.5184 7.12898 32.5575 7.34091 32.5892C7.41628 32.6005 7.49051 32.6147 7.56758 32.6232C7.85276 32.6586 8.13984 32.6774 8.42721 32.6793C8.64311 32.6793 8.85901 32.6663 9.07491 32.6464C9.15481 32.6396 9.23415 32.63 9.31348 32.6209C9.44325 32.6045 9.57245 32.5841 9.70108 32.5643C9.85635 32.5371 10.0093 32.5042 10.1606 32.4674C10.2683 32.4413 10.3765 32.4169 10.4836 32.3858L10.5006 32.3801C10.7046 32.32 10.9041 32.2492 11.1007 32.1721C11.1279 32.1614 11.1574 32.1529 11.184 32.1415C11.3886 32.0588 11.5881 31.9653 11.783 31.865L11.8334 31.8406C12.0352 31.7345 12.2309 31.6196 12.4205 31.4961C12.4313 31.4893 12.442 31.4836 12.4528 31.4763C12.6381 31.355 12.816 31.2247 12.9894 31.0875C13.0053 31.0745 13.0229 31.0632 13.0387 31.0501C13.1946 30.9249 13.3425 30.7912 13.487 30.6535C13.5193 30.6234 13.5533 30.5968 13.585 30.5645C13.7023 30.4512 13.8117 30.3259 13.9216 30.203C13.9749 30.1463 14.031 30.0896 14.082 30.0267C14.1607 29.9321 14.2321 29.8312 14.3086 29.7326C14.3851 29.634 14.456 29.5445 14.5234 29.4453C14.5727 29.3728 14.6152 29.2957 14.6622 29.2187C14.7376 29.0985 14.8175 28.9807 14.8889 28.8554C14.8929 28.8481 14.8957 28.8401 14.8997 28.8328C15.0311 28.5897 15.1486 28.3394 15.2516 28.0831C15.2805 28.0122 15.3037 27.9403 15.3303 27.8689C15.4059 27.6713 15.4711 27.4699 15.5258 27.2648C15.5479 27.1838 15.5689 27.1039 15.5887 27.0223C15.6375 26.816 15.6766 26.6063 15.7083 26.3938C15.7196 26.319 15.7338 26.2454 15.7423 26.17C15.7762 25.8855 15.7934 25.5992 15.7939 25.3126C15.7939 25.0967 15.7808 24.8808 15.761 24.6649ZM11.8504 22.6635C11.8759 22.6312 11.8969 22.596 11.9207 22.5626C11.9604 22.5059 12.0017 22.4538 12.034 22.396C12.0584 22.3569 12.0782 22.315 12.1003 22.2742C12.1304 22.2175 12.1621 22.1671 12.1882 22.111C12.2086 22.0673 12.2244 22.022 12.242 21.9778C12.2652 21.9211 12.2896 21.8673 12.3089 21.8078C12.3242 21.763 12.3344 21.716 12.3474 21.6701C12.3638 21.6134 12.382 21.5568 12.395 21.4956C12.4052 21.4485 12.4103 21.4009 12.4177 21.3539C12.4279 21.2944 12.4392 21.2355 12.4449 21.1754C12.4494 21.1267 12.4494 21.0785 12.4517 21.0298C12.4545 20.9697 12.459 20.9102 12.4579 20.8496C12.4579 20.8008 12.4511 20.7515 12.4477 20.7022C12.4443 20.6529 12.4437 20.5991 12.4369 20.5475C12.4539 20.5617 12.4692 20.5776 12.4857 20.5923C12.6627 20.7453 12.8309 20.9082 12.9894 21.0802C13.0217 21.1148 13.0529 21.1493 13.0841 21.1845C13.4371 21.5823 13.7383 22.0233 13.9805 22.4969C13.993 22.5218 14.0043 22.5473 14.0168 22.5722C14.1271 22.7958 14.2236 23.0259 14.3058 23.2613C14.312 23.2766 14.3205 23.2913 14.3234 23.3072L14.3222 23.3146L13.7539 24.066C13.4319 24.493 12.9287 24.7446 12.3939 24.746H10.0309C10.0212 24.7188 10.0088 24.6933 9.99801 24.6666L9.98668 24.6394C9.97818 24.6196 9.97138 24.5992 9.96175 24.5794L11.6328 22.9083C11.71 22.8309 11.7827 22.7492 11.8504 22.6635ZM8.30028 19.0855C8.46235 19.0821 8.62385 19.0855 8.78478 19.0974C8.86581 19.102 8.94798 19.102 9.02845 19.1099C9.25519 19.1311 9.4805 19.1651 9.70335 19.2119C9.76341 19.2244 9.82121 19.2431 9.88071 19.2572C10.0507 19.2986 10.2207 19.3439 10.3862 19.3995C10.4627 19.425 10.5369 19.4561 10.6128 19.4822C10.7598 19.5374 10.9047 19.598 11.0475 19.6641C11.0917 19.6845 11.1353 19.706 11.1795 19.7276L11.3132 20.6648C11.3878 21.1943 11.21 21.7281 10.8327 22.107L9.16161 23.7781C9.14178 23.7685 9.12138 23.7617 9.10155 23.7532L9.07435 23.7418C9.04771 23.7311 9.02221 23.7186 8.99501 23.709V21.0456C8.99353 20.8804 8.97759 20.7156 8.94741 20.5532C8.93948 20.5079 8.92928 20.4631 8.91908 20.4183C8.89138 20.295 8.8554 20.1736 8.81141 20.0551C8.79781 20.0183 8.78705 19.9814 8.77231 19.9457C8.71104 19.7995 8.63766 19.6587 8.55301 19.5247C8.53488 19.4969 8.51335 19.4714 8.49635 19.4437C8.42332 19.3376 8.34306 19.2366 8.25608 19.1416C8.24135 19.1252 8.23001 19.1054 8.21471 19.0889C8.24135 19.0889 8.27081 19.0861 8.30028 19.0855ZM3.70405 21.2564V21.2576C3.86959 21.0663 4.04653 20.8852 4.23388 20.7153C4.26335 20.6886 4.29055 20.6586 4.32171 20.6354C4.75146 20.2587 5.23058 19.9425 5.74575 19.6953L5.77238 19.6828C6.03772 19.5568 6.31171 19.45 6.59235 19.3632L6.92101 19.5275C7.49816 19.8135 7.86253 20.4027 7.86055 21.0468V23.7101C7.83335 23.7197 7.80785 23.7322 7.78121 23.743L7.75401 23.7543C7.73418 23.7628 7.71378 23.7696 7.69395 23.7792L6.02285 22.1081C5.90066 21.9887 5.76792 21.8806 5.62618 21.7851C5.60408 21.7698 5.58255 21.754 5.55988 21.7392C5.42331 21.6514 5.27938 21.5756 5.12978 21.5126C5.10428 21.5018 5.07878 21.4922 5.05271 21.482C4.89759 21.4198 4.73743 21.3713 4.57388 21.3369L4.54725 21.3329C4.38483 21.3027 4.22007 21.2865 4.05481 21.2848C4.04121 21.2848 4.02761 21.2802 4.01345 21.2802C3.99928 21.2802 3.99475 21.2802 3.98568 21.2802C3.91258 21.2802 3.83948 21.287 3.76638 21.2938C3.73181 21.2938 3.69725 21.2938 3.66268 21.3006C3.67741 21.2848 3.69101 21.2712 3.70405 21.2564ZM2.32025 25.7303V25.7342C2.28738 25.7722 2.25168 25.8085 2.22108 25.8476C2.20578 25.6685 2.19388 25.4923 2.19388 25.3126C2.19452 25.0854 2.20755 24.8585 2.23298 24.6326C2.23921 24.576 2.25111 24.5193 2.25848 24.466C2.28228 24.296 2.30891 24.126 2.34631 23.9623C2.36105 23.8943 2.38088 23.8285 2.39788 23.7611C2.43641 23.6121 2.47891 23.4642 2.52821 23.318C2.55371 23.242 2.58205 23.1672 2.61095 23.0913C2.66081 22.9604 2.71578 22.8312 2.77471 22.7037C2.79625 22.6567 2.81948 22.6096 2.84215 22.5632L3.77941 22.4294C4.30889 22.3544 4.84298 22.5323 5.22158 22.91L6.89268 24.5811C6.88361 24.6003 6.87681 24.6207 6.86831 24.6377L6.85585 24.6672C6.84508 24.6933 6.83261 24.7188 6.82355 24.7454H4.46055C4.35111 24.7455 4.24174 24.752 4.13301 24.7647C4.09505 24.7692 4.05821 24.7788 4.01968 24.7845C3.94998 24.7958 3.87971 24.8055 3.81115 24.8219C3.76865 24.8321 3.72728 24.8468 3.68478 24.8593C3.62301 24.8769 3.56068 24.8927 3.50061 24.916C3.45698 24.9318 3.41505 24.9522 3.37255 24.9726C3.31588 24.9964 3.25921 25.018 3.20255 25.0457C3.15891 25.0673 3.11811 25.0933 3.07561 25.1171C3.02405 25.146 2.97135 25.1738 2.92148 25.2055C2.87161 25.2373 2.84045 25.2622 2.79965 25.2934C2.75885 25.3245 2.70445 25.3597 2.65911 25.3971C2.61378 25.4345 2.58488 25.4645 2.54578 25.4985C2.50668 25.5325 2.45851 25.5761 2.41828 25.6181C2.37805 25.66 2.35368 25.6917 2.32025 25.7303ZM5.00341 27.9624V27.9663C4.98245 27.993 4.96545 28.023 4.94675 28.0491C4.90255 28.1097 4.85721 28.1698 4.81811 28.2338C4.79715 28.2672 4.78071 28.3035 4.76145 28.3381C4.72801 28.3947 4.69288 28.4571 4.66398 28.5188C4.64528 28.5585 4.63168 28.5993 4.61525 28.6395C4.59031 28.699 4.56425 28.7585 4.54328 28.8197C4.52911 28.8622 4.51948 28.9059 4.50758 28.9489C4.49001 29.0096 4.47075 29.0696 4.45771 29.132C4.44808 29.1773 4.44298 29.2232 4.43561 29.2691C4.42541 29.3297 4.41408 29.3904 4.40785 29.4521C4.40331 29.4997 4.40331 29.5479 4.40105 29.5961C4.40105 29.6567 4.39368 29.7168 4.39481 29.7768C4.39481 29.8267 4.40161 29.876 4.40501 29.9259C4.40841 29.9757 4.40898 30.0284 4.41578 30.0794C4.40048 30.0664 4.38631 30.0522 4.37158 30.0392C4.19237 29.8839 4.02209 29.7185 3.86158 29.5439C3.83098 29.5111 3.80038 29.4776 3.77035 29.4442C3.41788 29.0459 3.11705 28.6048 2.87501 28.1312C2.86255 28.1074 2.85121 28.0825 2.83931 28.0581C2.72903 27.8341 2.63227 27.6036 2.54975 27.3679C2.54408 27.3526 2.53785 27.3379 2.53275 27.322L3.10055 26.5593C3.42263 26.1324 3.92583 25.8808 4.46055 25.8793H6.82355C6.83261 25.9059 6.84508 25.9314 6.85585 25.9575L6.86831 25.987C6.87681 26.0062 6.88361 26.0266 6.89268 26.0436L5.22158 27.7147C5.14416 27.7931 5.07134 27.8757 5.00341 27.9624ZM8.85788 31.5239L8.85675 31.5278C8.648 31.5428 8.43862 31.5468 8.22945 31.5397C8.15011 31.5397 8.07021 31.5335 7.99145 31.5278C7.78858 31.5139 7.58685 31.4899 7.38625 31.4559C7.33638 31.4474 7.28538 31.4428 7.23608 31.4332C6.98682 31.3845 6.74081 31.3205 6.49941 31.2417C6.44898 31.2252 6.40081 31.2048 6.35095 31.185C6.16203 31.1178 5.97581 31.0413 5.79221 30.9555C5.75255 30.9374 5.71401 30.9187 5.67491 30.8988L5.54231 29.9593C5.46773 29.4298 5.64559 28.896 6.02285 28.5171L7.69395 26.846C7.71378 26.8557 7.73418 26.8625 7.75458 26.8715L7.78121 26.8823C7.80728 26.8931 7.83335 26.9055 7.86055 26.9152V29.2793C7.86069 29.3887 7.86713 29.4981 7.87981 29.6068C7.88435 29.6454 7.89398 29.6822 7.89965 29.7202C7.91098 29.7899 7.92061 29.8596 7.93705 29.9281C7.94725 29.9718 7.96255 30.0137 7.97501 30.0568C7.99258 30.118 8.00845 30.1792 8.03168 30.2392C8.04755 30.2829 8.06851 30.3248 8.08835 30.3684C8.11215 30.4251 8.13425 30.4818 8.16145 30.5384C8.18298 30.5821 8.20905 30.6229 8.23285 30.6654C8.26175 30.7169 8.28951 30.7702 8.32125 30.8201C8.35298 30.8699 8.37791 30.9017 8.40965 30.9425C8.44138 30.9833 8.47595 31.0371 8.51221 31.0819C8.54848 31.1266 8.58078 31.1572 8.61535 31.1952C8.64991 31.2332 8.69185 31.2819 8.73378 31.3221C8.77571 31.3624 8.81028 31.389 8.84711 31.4224C8.88395 31.4559 8.92135 31.4904 8.96045 31.521C8.92588 31.5216 8.89131 31.5216 8.85788 31.5239ZM8.94968 25.5331C8.93013 25.5697 8.90697 25.6043 8.88055 25.6362C8.84428 25.6866 8.80008 25.7308 8.74965 25.7671C8.7177 25.7935 8.68313 25.8167 8.64651 25.8362C8.50626 25.8951 8.34816 25.8951 8.20791 25.8362C8.17129 25.8167 8.13673 25.7935 8.10478 25.7671C8.05824 25.7342 8.01716 25.6942 7.98295 25.6487C7.95242 25.6142 7.92621 25.5761 7.90475 25.5353C7.84588 25.3951 7.84588 25.237 7.90475 25.0967C7.92578 25.054 7.95206 25.014 7.98295 24.9777V24.9789C8.01716 24.9333 8.05824 24.8934 8.10478 24.8604C8.13673 24.834 8.17129 24.8109 8.20791 24.7913C8.34816 24.7324 8.50626 24.7324 8.64651 24.7913C8.68313 24.8109 8.7177 24.834 8.74965 24.8604C8.80008 24.8967 8.84428 24.9409 8.88055 24.9913C8.90697 25.0233 8.93013 25.0578 8.94968 25.0945C9.00854 25.2347 9.00854 25.3928 8.94968 25.5331ZM13.1453 29.3739L13.1441 29.3779C12.9911 29.5549 12.8282 29.7231 12.6562 29.8817C12.6217 29.914 12.5871 29.9451 12.552 29.9763C12.1547 30.3267 11.7149 30.6256 11.243 30.866L11.1676 30.9022C10.944 31.0125 10.7139 31.109 10.4785 31.1912C10.4632 31.1969 10.4485 31.2031 10.4326 31.2082L9.67388 30.6393C9.24683 30.3174 8.99523 29.8141 8.99388 29.2793V26.9163C9.02108 26.9067 9.04658 26.8942 9.07321 26.8834L9.10041 26.8721C9.12025 26.8636 9.14065 26.8568 9.16048 26.8472L10.8316 28.5183C10.9538 28.638 11.0865 28.7465 11.2282 28.8424L11.2906 28.886C11.4271 28.9739 11.571 29.0497 11.7207 29.1127C11.7467 29.124 11.7722 29.1342 11.7983 29.1444C11.9515 29.2055 12.1096 29.2533 12.2709 29.2872C12.2873 29.2906 12.3043 29.2923 12.3208 29.2952C12.4845 29.3263 12.6506 29.3428 12.8172 29.3445C12.8251 29.3445 12.8325 29.3445 12.8398 29.3445H12.85C12.9637 29.3443 13.0773 29.3371 13.19 29.3229C13.1759 29.3422 13.16 29.3575 13.1453 29.3739ZM14.6203 25.9994C14.6141 26.0561 14.6022 26.1128 14.5942 26.1694C14.571 26.3394 14.5444 26.5043 14.5075 26.6692C14.4922 26.7384 14.4724 26.8058 14.4548 26.8738C14.4163 27.0217 14.3749 27.1685 14.3256 27.313C14.2996 27.39 14.269 27.466 14.2418 27.5396C14.1919 27.67 14.1375 27.798 14.0791 27.925C14.057 27.9726 14.0338 28.019 14.0111 28.0661L13.0739 28.1998C12.5445 28.274 12.0108 28.0962 11.6317 27.7193L9.96062 26.0482C9.97025 26.0283 9.97705 26.0079 9.98555 25.9881L9.99688 25.9609C10.0076 25.9343 10.0201 25.9088 10.0297 25.8816H12.3939C12.5033 25.8814 12.6127 25.875 12.7214 25.8623C12.7599 25.8578 12.7968 25.8481 12.8347 25.8425C12.9044 25.8311 12.9741 25.8215 13.0427 25.8051C13.0863 25.7949 13.1283 25.7796 13.1713 25.7671C13.2325 25.7495 13.2937 25.7337 13.3538 25.7104C13.3974 25.6946 13.4394 25.6736 13.483 25.6538C13.5397 25.63 13.5963 25.6079 13.653 25.5807C13.6966 25.5591 13.7374 25.5331 13.7799 25.5093C13.8315 25.4804 13.8848 25.4526 13.9346 25.4209C13.9845 25.3891 14.0162 25.3642 14.057 25.3325C14.0978 25.3007 14.1517 25.2662 14.1964 25.2299C14.2412 25.1936 14.2718 25.1613 14.3098 25.1268C14.3477 25.0922 14.3965 25.0503 14.4367 25.0083C14.4769 24.9664 14.5013 24.9335 14.5347 24.895L14.5336 24.9012C14.5665 24.8627 14.6016 24.827 14.6322 24.7879C14.6475 24.9636 14.6594 25.1398 14.6594 25.3194C14.6588 25.5467 14.6457 25.7736 14.6203 25.9994Z" fill="#5C6D7D"/>
<path d="M5.2027 18.213L5.76526 17.4884L8.47049 19.5886L7.90793 20.3133L5.2027 18.213Z" fill="#5C6D7D"/>
<path d="M8.59253 30.9892L9.15509 30.2646L11.8603 32.3648L11.2978 33.0894L8.59253 30.9892Z" fill="#5C6D7D"/>
<path d="M11.1811 17.9317L12.0913 17.8171L12.5191 21.2151L11.6089 21.3297L11.1811 17.9317Z" fill="#5C6D7D"/>
<path d="M4.54395 29.3628L5.45412 29.2482L5.88194 32.6462L4.97177 32.7608L4.54395 29.3628Z" fill="#5C6D7D"/>
<path d="M1.17429 22.6394L1.05969 21.7292L4.45766 21.3014L4.57225 22.2115L1.17429 22.6394Z" fill="#5C6D7D"/>
<path d="M12.6054 29.2765L12.4908 28.3663L15.8887 27.9385L16.0033 28.8487L12.6054 29.2765Z" fill="#5C6D7D"/>
<path d="M1.45564 28.6178L0.731023 28.0552L2.83124 25.35L3.55585 25.9125L1.45564 28.6178Z" fill="#5C6D7D"/>
<path d="M14.2318 25.2279L13.5072 24.6654L15.6074 21.9601L16.332 22.5227L14.2318 25.2279Z" fill="#5C6D7D"/>
<path d="M7.69665 17.2439L8.49326 16.7284L10.4177 19.7024L9.6211 20.2179L7.69665 17.2439Z" fill="#E67861"/>
<path d="M6.64543 30.8753L7.44204 30.3599L9.3665 33.3339L8.56989 33.8493L6.64543 30.8753Z" fill="#E67861"/>
<path d="M13.6299 19.0098L14.5576 19.2086L13.8155 22.6723L12.8877 22.4736L13.6299 19.0098Z" fill="#E67861"/>
<path d="M3.24764 27.9054L4.17542 28.1042L3.43328 31.5679L2.5055 31.3691L3.24764 27.9054Z" fill="#E67861"/>
<path d="M2.25252 20.1906L2.45131 19.2628L5.91504 20.0049L5.71626 20.9327L2.25252 20.1906Z" fill="#E67861"/>
<path d="M11.1481 30.5728L11.3469 29.645L14.8106 30.3872L14.6118 31.315L11.1481 30.5728Z" fill="#E67861"/>
<path d="M0.486574 26.1238L-0.0289053 25.3272L2.9451 23.4027L3.46058 24.1993L0.486574 26.1238Z" fill="#E67861"/>
<path d="M14.118 27.175L13.6026 26.3784L16.5766 24.454L17.092 25.2506L14.118 27.175Z" fill="#E67861"/>
<path d="M32.7742 7.95894C32.7674 7.87904 32.7578 7.79971 32.7487 7.72037C32.7323 7.59061 32.7119 7.46141 32.692 7.33277C32.6648 7.17751 32.632 7.02451 32.5951 6.87321C32.5691 6.76497 32.5441 6.65674 32.513 6.54907L32.5073 6.53207C32.4472 6.32807 32.3764 6.12861 32.2993 5.93197C32.2886 5.90477 32.2801 5.87531 32.2687 5.84867C32.1854 5.64354 32.0919 5.44407 31.9911 5.24801C31.9831 5.23214 31.9763 5.21514 31.9678 5.19927C31.8613 4.99641 31.7457 4.80261 31.6216 4.60881C31.6154 4.59974 31.6103 4.59011 31.604 4.58047C31.4811 4.39347 31.3496 4.21327 31.2108 4.03817C31.1966 4.02287 31.187 4.00757 31.1756 3.99397C31.0476 3.83531 30.9116 3.68401 30.7716 3.53667C30.7438 3.50777 30.7189 3.47661 30.6906 3.44827C30.5716 3.32701 30.4452 3.21367 30.3177 3.10091C30.261 3.05161 30.21 2.99891 30.1528 2.95074C30.0531 2.86744 29.9471 2.79264 29.8434 2.71444C29.7527 2.64644 29.6655 2.57504 29.572 2.51157C29.4898 2.45491 29.402 2.40731 29.3187 2.35517C29.2053 2.28547 29.0988 2.21181 28.9838 2.14891C28.9753 2.14381 28.9662 2.14041 28.9577 2.13587C28.9124 2.11094 28.8636 2.09111 28.8177 2.06731C28.6557 1.98344 28.4925 1.90127 28.3247 1.82987C28.2539 1.79927 28.1791 1.77321 28.1066 1.74714C27.9592 1.69047 27.813 1.63381 27.6623 1.58451C27.5767 1.55731 27.4883 1.53747 27.4011 1.51367C27.26 1.47457 27.1177 1.43434 26.9749 1.40374C26.8775 1.38277 26.7777 1.36974 26.6791 1.35274C26.5431 1.33007 26.4077 1.30571 26.2706 1.29041C26.1572 1.27737 26.0399 1.27284 25.9243 1.26491C25.8087 1.25697 25.6824 1.24847 25.56 1.24677C25.5203 1.24677 25.4812 1.24054 25.441 1.24054C25.3333 1.24054 25.2279 1.25187 25.1214 1.25697C25.0364 1.26094 24.9514 1.26264 24.8658 1.26944C24.6777 1.28417 24.4929 1.30797 24.3093 1.33687C24.268 1.34311 24.2266 1.34821 24.1847 1.35557C23.9708 1.39333 23.7604 1.43979 23.5534 1.49497C23.5398 1.49837 23.5262 1.50007 23.5132 1.50347L23.4933 1.50971C23.272 1.57091 23.0551 1.64195 22.8428 1.72277L22.7861 1.74204C22.5738 1.82477 22.366 1.91679 22.1628 2.01801C22.1452 2.02707 22.1277 2.03444 22.1107 2.04351C21.9118 2.14437 21.7191 2.25487 21.5315 2.37274C21.51 2.38634 21.4885 2.39824 21.4675 2.41184C21.2907 2.52517 21.1201 2.64757 20.9541 2.77564C20.9235 2.79944 20.8912 2.82097 20.8612 2.84534C20.7127 2.96321 20.571 3.08901 20.4328 3.21764C20.3886 3.25844 20.3432 3.29641 20.3007 3.33777C20.184 3.45111 20.0741 3.57237 19.9647 3.69364C19.908 3.75711 19.8514 3.81717 19.7947 3.88177C19.7074 3.98604 19.6247 4.09654 19.5459 4.20534C19.4802 4.29261 19.4111 4.37534 19.3493 4.46827C19.2807 4.56801 19.2212 4.67397 19.1578 4.77767C19.0943 4.88137 19.0354 4.96467 18.9815 5.06101C18.9776 5.06837 18.9747 5.07631 18.9708 5.08311C18.8393 5.32656 18.7216 5.57724 18.6183 5.83394C18.5894 5.90477 18.5662 5.97617 18.5395 6.04757C18.4664 6.24534 18.4007 6.44424 18.344 6.65164C18.3219 6.73267 18.301 6.81314 18.2811 6.89474C18.2324 7.10101 18.1933 7.31011 18.1616 7.52204C18.1502 7.59741 18.1361 7.67164 18.1276 7.74871C18.0929 8.03339 18.075 8.31984 18.0737 8.60664C18.0737 8.82254 18.0868 9.03844 18.1066 9.25434C18.1134 9.33424 18.123 9.41357 18.1321 9.49291C18.1485 9.62267 18.1689 9.75187 18.1888 9.88051C18.216 10.0358 18.2488 10.1888 18.2857 10.3401C18.3117 10.4483 18.3367 10.5565 18.3678 10.6642L18.3735 10.6812C18.4341 10.8858 18.505 11.0858 18.582 11.2824C18.5922 11.3096 18.6007 11.3391 18.6115 11.364C18.6954 11.5703 18.7894 11.7715 18.8909 11.9681C18.8988 11.9828 18.905 11.9981 18.9124 12.0129C19.0201 12.2177 19.1366 12.4161 19.262 12.6084C19.2671 12.6164 19.2711 12.6243 19.2762 12.6317C19.4003 12.8209 19.5335 13.0034 19.6729 13.1808C19.6825 13.1927 19.691 13.2051 19.7006 13.217C19.8298 13.378 19.9681 13.5315 20.1109 13.6811C20.1358 13.7078 20.1591 13.7378 20.1851 13.7627C20.3064 13.8868 20.4356 14.0024 20.5659 14.1175C20.6186 14.1645 20.6685 14.2149 20.7229 14.2603C20.8255 14.3464 20.9354 14.424 21.0431 14.5045C21.1298 14.5697 21.2131 14.6388 21.3037 14.7C21.3944 14.7612 21.4788 14.8077 21.5661 14.8621C21.6749 14.9295 21.7809 15.0015 21.8931 15.0632C21.9004 15.0672 21.9084 15.07 21.9152 15.074C22.1586 15.2055 22.4093 15.3232 22.666 15.4265C22.7368 15.4554 22.8082 15.4786 22.8796 15.5052C23.0774 15.5783 23.2763 15.6441 23.4837 15.7007C23.5647 15.7228 23.6452 15.7438 23.7268 15.7636C23.9331 15.8124 24.1422 15.8515 24.3541 15.8832C24.4295 15.8945 24.5037 15.9087 24.5808 15.9172C24.8659 15.9526 25.153 15.9714 25.4404 15.9733C25.6563 15.9733 25.8722 15.9603 26.0881 15.9404C26.168 15.9336 26.2473 15.924 26.3267 15.9149C26.4564 15.8985 26.5856 15.8781 26.7143 15.8583C26.8695 15.8311 27.0225 15.7982 27.1738 15.7614C27.2815 15.7353 27.3897 15.7109 27.4968 15.6798L27.5138 15.6741C27.7178 15.614 27.9173 15.5432 28.1139 15.4661C28.1411 15.4554 28.1706 15.4469 28.1972 15.4355C28.4018 15.3528 28.6013 15.2593 28.7962 15.159L28.8466 15.1346C29.0484 15.0285 29.2441 14.9136 29.4337 14.7901C29.4445 14.7833 29.4552 14.7776 29.466 14.7703C29.6513 14.649 29.8292 14.5187 30.0026 14.3815C30.0185 14.3685 30.0361 14.3572 30.0519 14.3441C30.2078 14.2189 30.3557 14.0852 30.5002 13.9475C30.5325 13.9174 30.5665 13.8908 30.5982 13.8585C30.7155 13.7452 30.8249 13.6199 30.9348 13.497C30.9881 13.4403 31.0442 13.3836 31.0952 13.3207C31.1739 13.2261 31.2453 13.1252 31.3218 13.0266C31.3983 12.928 31.4692 12.8385 31.5366 12.7393C31.5859 12.6668 31.6284 12.5897 31.6754 12.5127C31.7508 12.3925 31.8307 12.2747 31.9021 12.1494C31.9061 12.1421 31.9089 12.1341 31.9129 12.1268C32.0443 11.8837 32.1618 11.6334 32.2648 11.3771C32.2937 11.3062 32.3169 11.2343 32.3435 11.1629C32.4191 10.9653 32.4843 10.7639 32.539 10.5588C32.5611 10.4778 32.5821 10.3979 32.6019 10.3163C32.6507 10.11 32.6898 9.90034 32.7215 9.68784C32.7328 9.61304 32.747 9.53937 32.7555 9.46401C32.7893 9.17947 32.8066 8.89316 32.8071 8.60664C32.8071 8.39074 32.794 8.17484 32.7742 7.95894ZM28.8636 5.95747C28.8891 5.92517 28.9101 5.89004 28.9339 5.85661C28.9736 5.79994 29.0149 5.74781 29.0472 5.69001C29.0716 5.65091 29.0914 5.60897 29.1135 5.56817C29.1436 5.51151 29.1753 5.46107 29.2014 5.40497C29.2218 5.36134 29.2376 5.31601 29.2552 5.27181C29.2784 5.21514 29.3028 5.16131 29.3221 5.10181C29.3374 5.05704 29.3476 5.01001 29.3606 4.96411C29.377 4.90744 29.3952 4.85077 29.4082 4.78957C29.4184 4.74254 29.4235 4.69494 29.4309 4.64791C29.4411 4.58841 29.4524 4.52947 29.4581 4.46941C29.4626 4.42067 29.4626 4.37251 29.4649 4.32377C29.4677 4.26371 29.4722 4.20421 29.4711 4.14357C29.4711 4.09484 29.4643 4.04554 29.4609 3.99624C29.4575 3.94694 29.4569 3.89311 29.4501 3.84154C29.4671 3.85571 29.4824 3.87157 29.4989 3.88631C29.6759 4.03931 29.844 4.20222 30.0026 4.37421C30.0349 4.40877 30.0661 4.44334 30.0973 4.47847C30.4503 4.87634 30.7515 5.31735 30.9937 5.79087C31.0062 5.81581 31.0175 5.84131 31.03 5.86624C31.1403 6.08979 31.2367 6.31993 31.319 6.55531C31.3252 6.57061 31.3337 6.58534 31.3366 6.60121L31.3354 6.60857L30.7671 7.35997C30.4451 7.78703 29.9418 8.03863 29.4071 8.03997H27.0441C27.0344 8.01277 27.022 7.98727 27.0112 7.96064L26.9999 7.93344C26.9914 7.91361 26.9846 7.89321 26.9749 7.87337L28.646 6.20227C28.7232 6.12492 28.7958 6.04318 28.8636 5.95747ZM25.3135 2.37954C25.4755 2.37614 25.637 2.37954 25.798 2.39144C25.879 2.39597 25.9612 2.39597 26.0416 2.40391C26.2684 2.42509 26.4937 2.45916 26.7165 2.50591C26.7766 2.51837 26.8344 2.53707 26.8939 2.55124C27.0639 2.59261 27.2339 2.63794 27.3994 2.69347C27.4759 2.71897 27.5501 2.75014 27.626 2.77621C27.773 2.83139 27.9179 2.89202 28.0607 2.95811C28.1049 2.97851 28.1485 3.00004 28.1927 3.02157L28.3264 3.95884C28.4009 4.48832 28.2231 5.02212 27.8459 5.40101L26.1748 7.07211C26.155 7.06247 26.1346 7.05567 26.1147 7.04717L26.0875 7.03584C26.0609 7.02507 26.0354 7.01261 26.0082 7.00297V4.33964C26.0067 4.17439 25.9908 4.00963 25.9606 3.84721C25.9527 3.80187 25.9425 3.75711 25.9323 3.71234C25.9046 3.58902 25.8686 3.46761 25.8246 3.34911C25.811 3.31227 25.8002 3.27544 25.7855 3.23974C25.7242 3.09354 25.6508 2.95272 25.5662 2.81871C25.5481 2.79094 25.5265 2.76544 25.5095 2.73767C25.4365 2.63156 25.3562 2.53063 25.2693 2.43564C25.2545 2.41921 25.2432 2.39937 25.2279 2.38294C25.2545 2.38294 25.284 2.38011 25.3135 2.37954ZM20.7172 4.55044V4.55157C20.8828 4.36032 21.0597 4.1792 21.2471 4.00927C21.2765 3.98264 21.3037 3.95261 21.3349 3.92937C21.7646 3.55275 22.2438 3.23648 22.7589 2.98927L22.7856 2.97681C23.0509 2.85079 23.3249 2.74398 23.6055 2.65721L23.9342 2.82154C24.5113 3.10749 24.8757 3.69669 24.8737 4.34077V7.00411C24.8465 7.01374 24.821 7.02621 24.7944 7.03697L24.7672 7.04831C24.7474 7.05681 24.727 7.06361 24.7071 7.07324L23.036 5.40214C22.9138 5.28271 22.7811 5.17462 22.6394 5.07914C22.6173 5.06384 22.5957 5.04797 22.5731 5.03324C22.4365 4.94541 22.2926 4.86962 22.143 4.80657C22.1175 4.79581 22.092 4.78617 22.0659 4.77597C21.9108 4.71378 21.7506 4.66526 21.5871 4.63091L21.5604 4.62694C21.398 4.59669 21.2332 4.58054 21.068 4.57877C21.0544 4.57877 21.0408 4.57424 21.0266 4.57424C21.0125 4.57424 21.0079 4.57424 20.9989 4.57424C20.9258 4.57424 20.8527 4.58104 20.7796 4.58784C20.745 4.58784 20.7104 4.58784 20.6759 4.59464C20.6906 4.57877 20.7042 4.56517 20.7172 4.55044ZM19.3334 9.02427V9.02824C19.3006 9.06621 19.2649 9.10247 19.2343 9.14157C19.219 8.96251 19.2071 8.78627 19.2071 8.60664C19.2077 8.37941 19.2207 8.15246 19.2462 7.92664C19.2524 7.86997 19.2643 7.81331 19.2717 7.76004C19.2955 7.59004 19.3221 7.42004 19.3595 7.25627C19.3742 7.18827 19.3941 7.12254 19.4111 7.05511C19.4496 6.90607 19.4921 6.75817 19.5414 6.61197C19.5669 6.53604 19.5952 6.46124 19.6241 6.38531C19.674 6.25441 19.729 6.12521 19.7879 5.99771C19.8094 5.95067 19.8327 5.90364 19.8553 5.85717L20.7926 5.72344C21.3221 5.64836 21.8562 5.82629 22.2348 6.20397L23.9059 7.87507C23.8968 7.89434 23.89 7.91474 23.8815 7.93174L23.869 7.96121C23.8583 7.98727 23.8458 8.01277 23.8367 8.03941H21.4737C21.3643 8.03955 21.2549 8.046 21.1462 8.05867C21.1082 8.06321 21.0714 8.07284 21.0329 8.07851C20.9632 8.08984 20.8929 8.09947 20.8243 8.11591C20.7818 8.12611 20.7405 8.14084 20.698 8.15331C20.6362 8.17087 20.5739 8.18674 20.5138 8.20997C20.4702 8.22584 20.4282 8.24624 20.3857 8.26664C20.3291 8.29044 20.2724 8.31197 20.2157 8.33974C20.1721 8.36127 20.1313 8.38734 20.0888 8.41114C20.0372 8.44004 19.9845 8.46781 19.9347 8.49954C19.8848 8.53127 19.8536 8.55621 19.8128 8.58737C19.772 8.61854 19.7176 8.65367 19.6723 8.69107C19.627 8.72847 19.5981 8.75851 19.559 8.79251C19.5199 8.82651 19.4717 8.87014 19.4315 8.91207C19.3912 8.95401 19.3669 8.98574 19.3334 9.02427ZM22.0166 11.2564V11.2603C21.9956 11.287 21.9786 11.317 21.9599 11.3431C21.9157 11.4037 21.8704 11.4638 21.8313 11.5278C21.8103 11.5612 21.7939 11.5975 21.7746 11.6321C21.7412 11.6887 21.7061 11.7511 21.6772 11.8128C21.6585 11.8525 21.6449 11.8933 21.6284 11.9335C21.6035 11.993 21.5774 12.0525 21.5565 12.1137C21.5423 12.1562 21.5327 12.1999 21.5208 12.2429C21.5032 12.3036 21.4839 12.3636 21.4709 12.426C21.4613 12.4713 21.4562 12.5172 21.4488 12.5631C21.4386 12.6237 21.4273 12.6844 21.421 12.7461C21.4165 12.7937 21.4165 12.8419 21.4142 12.8901C21.4142 12.9507 21.4069 13.0108 21.408 13.0708C21.408 13.1207 21.4148 13.17 21.4182 13.2199C21.4216 13.2697 21.4222 13.3224 21.429 13.3734C21.4137 13.3604 21.3995 13.3462 21.3848 13.3332C21.2056 13.1779 21.0353 13.0125 20.8748 12.8379C20.8442 12.8051 20.8136 12.7716 20.7835 12.7382C20.4311 12.3399 20.1302 11.8988 19.8882 11.4252C19.8757 11.4014 19.8644 11.3765 19.8525 11.3521C19.7422 11.1281 19.6455 10.8976 19.5629 10.6619C19.5573 10.6466 19.551 10.6319 19.5459 10.616L20.1137 9.85331C20.4358 9.4264 20.939 9.1748 21.4737 9.17331H23.8367C23.8458 9.19994 23.8583 9.22544 23.869 9.25151L23.8815 9.28098C23.89 9.30024 23.8968 9.32064 23.9059 9.33764L22.2348 11.0087C22.1573 11.0871 22.0845 11.1697 22.0166 11.2564ZM25.8711 14.8179L25.8699 14.8218C25.6612 14.8369 25.4518 14.8408 25.2426 14.8337C25.1633 14.8337 25.0834 14.8275 25.0046 14.8218C24.8018 14.8079 24.6 14.7839 24.3994 14.7499C24.3496 14.7414 24.2986 14.7368 24.2493 14.7272C24 14.6785 23.754 14.6145 23.5126 14.5357C23.4622 14.5192 23.414 14.4988 23.3641 14.479C23.1752 14.4118 22.989 14.3353 22.8054 14.2495C22.7657 14.2314 22.7272 14.2127 22.6881 14.1928L22.5555 13.2533C22.4809 12.7238 22.6588 12.19 23.036 11.8111L24.7071 10.14C24.727 10.1497 24.7474 10.1565 24.7678 10.1655L24.7944 10.1763C24.8205 10.1871 24.8465 10.1995 24.8737 10.2092V12.5733C24.8739 12.6827 24.8803 12.7921 24.893 12.9008C24.8975 12.9394 24.9072 12.9762 24.9128 13.0142C24.9242 13.0839 24.9338 13.1536 24.9502 13.2221C24.9604 13.2658 24.9757 13.3077 24.9882 13.3508C25.0058 13.412 25.0216 13.4732 25.0449 13.5332C25.0607 13.5769 25.0817 13.6188 25.1015 13.6624C25.1253 13.7191 25.1474 13.7758 25.1746 13.8324C25.1962 13.8761 25.2222 13.9169 25.246 13.9594C25.2749 14.0109 25.3027 14.0642 25.3344 14.1141C25.3662 14.1639 25.3911 14.1957 25.4228 14.2365C25.4546 14.2773 25.4891 14.3311 25.5254 14.3759C25.5617 14.4206 25.594 14.4512 25.6285 14.4892C25.6631 14.5272 25.705 14.5759 25.747 14.6161C25.7889 14.6564 25.8235 14.683 25.8603 14.7164C25.8971 14.7499 25.9345 14.7844 25.9736 14.815C25.9391 14.8156 25.9045 14.8156 25.8711 14.8179ZM25.9629 8.82707C25.9433 8.8637 25.9201 8.89826 25.8937 8.93021C25.8575 8.98064 25.8133 9.02484 25.7628 9.06111C25.7309 9.08753 25.6963 9.11069 25.6597 9.13024C25.5194 9.1891 25.3613 9.1891 25.2211 9.13024C25.1845 9.11069 25.1499 9.08753 25.118 9.06111C25.0714 9.02817 25.0303 8.98822 24.9961 8.94267C24.9656 8.90818 24.9394 8.87014 24.9179 8.82934C24.8591 8.68909 24.8591 8.53099 24.9179 8.39074C24.939 8.34803 24.9652 8.30801 24.9961 8.27174V8.27287C25.0303 8.22733 25.0714 8.18738 25.118 8.15444C25.1499 8.12802 25.1845 8.10486 25.2211 8.08531C25.3613 8.02644 25.5194 8.02644 25.6597 8.08531C25.6963 8.10486 25.7309 8.12802 25.7628 8.15444C25.8133 8.19071 25.8575 8.23491 25.8937 8.28534C25.9201 8.31729 25.9433 8.35185 25.9629 8.38847C26.0217 8.52872 26.0217 8.68682 25.9629 8.82707ZM30.1585 12.6679L30.1573 12.6719C30.0043 12.8489 29.8414 13.0171 29.6694 13.1757C29.6349 13.208 29.6003 13.2391 29.5652 13.2703C29.1679 13.6207 28.7281 13.9196 28.2562 14.16L28.1808 14.1962C27.9572 14.3065 27.7271 14.403 27.4917 14.4852C27.4764 14.4909 27.4617 14.4971 27.4458 14.5022L26.6871 13.9333C26.26 13.6114 26.0084 13.1081 26.0071 12.5733V10.2103C26.0343 10.2007 26.0598 10.1882 26.0864 10.1774L26.1136 10.1661C26.1334 10.1576 26.1538 10.1508 26.1737 10.1412L27.8448 11.8123C27.9669 11.9321 28.0997 12.0405 28.2414 12.1364L28.3038 12.18C28.4403 12.2679 28.5842 12.3437 28.7339 12.4067C28.7599 12.418 28.7854 12.4282 28.8115 12.4384C28.9646 12.4995 29.1227 12.5473 29.2841 12.5812C29.3005 12.5846 29.3175 12.5863 29.334 12.5892C29.4977 12.6203 29.6638 12.6368 29.8304 12.6385C29.8383 12.6385 29.8457 12.6385 29.853 12.6385H29.8632C29.9769 12.6383 30.0905 12.6311 30.2032 12.6169C30.1891 12.6362 30.1732 12.6515 30.1585 12.6679ZM31.6335 9.29344C31.6273 9.35011 31.6154 9.40677 31.6074 9.46344C31.5842 9.63344 31.5576 9.79834 31.5207 9.96324C31.5054 10.0324 31.4856 10.0998 31.468 10.1678C31.4295 10.3157 31.3881 10.4625 31.3388 10.607C31.3128 10.684 31.2822 10.76 31.255 10.8336C31.2051 10.964 31.1507 11.092 31.0923 11.219C31.0702 11.2666 31.047 11.313 31.0243 11.3601L30.0871 11.4938C29.5576 11.568 29.024 11.3902 28.6449 11.0133L26.9738 9.34217C26.9834 9.32234 26.9902 9.30194 26.9987 9.28211L27.0101 9.25491C27.0208 9.22827 27.0333 9.20277 27.0429 9.17557H29.4071C29.5165 9.17543 29.6259 9.16899 29.7346 9.15631C29.7731 9.15177 29.81 9.14214 29.8479 9.13647C29.9176 9.12514 29.9873 9.11551 30.0559 9.09907C30.0995 9.08887 30.1415 9.07357 30.1845 9.06111C30.2457 9.04354 30.3069 9.02767 30.367 9.00444C30.4106 8.98857 30.4526 8.96761 30.4962 8.94777C30.5529 8.92397 30.6095 8.90187 30.6662 8.87467C30.7098 8.85314 30.7506 8.82707 30.7931 8.80327C30.8447 8.77437 30.898 8.74661 30.9478 8.71487C30.9977 8.68314 31.0294 8.65821 31.0702 8.62647C31.111 8.59474 31.1649 8.56017 31.2096 8.52391C31.2544 8.48764 31.285 8.45534 31.323 8.42077C31.3609 8.38621 31.4097 8.34427 31.4499 8.30234C31.4901 8.26041 31.5145 8.22754 31.5479 8.18901L31.5468 8.19524C31.5797 8.15671 31.6148 8.12101 31.6454 8.08191C31.6607 8.25757 31.6726 8.43381 31.6726 8.61344C31.6719 8.84067 31.6589 9.06762 31.6335 9.29344Z" fill="#E67861"/>
<path d="M22.2159 1.507L22.7784 0.782388L25.4837 2.8826L24.9211 3.60722L22.2159 1.507Z" fill="#E67861"/>
<path d="M25.6057 14.2832L26.1683 13.5585L28.8735 15.6587L28.3109 16.3834L25.6057 14.2832Z" fill="#E67861"/>
<path d="M28.1942 1.22566L29.1044 1.11107L29.5322 4.50903L28.6221 4.62363L28.1942 1.22566Z" fill="#E67861"/>
<path d="M21.5571 12.6567L22.4673 12.5421L22.8951 15.9401L21.9849 16.0547L21.5571 12.6567Z" fill="#E67861"/>
<path d="M18.1875 5.93331L18.0729 5.02314L21.4708 4.59533L21.5854 5.5055L18.1875 5.93331Z" fill="#E67861"/>
<path d="M29.6185 12.5704L29.5039 11.6603L32.9019 11.2325L33.0165 12.1426L29.6185 12.5704Z" fill="#E67861"/>
<path d="M18.4688 11.9117L17.7442 11.3491L19.8444 8.64391L20.569 9.20647L18.4688 11.9117Z" fill="#E67861"/>
<path d="M31.2449 8.52187L30.5203 7.95931L32.6205 5.25408L33.3452 5.81664L31.2449 8.52187Z" fill="#E67861"/>
<path d="M24.7098 0.537877L25.5064 0.0223969L27.4309 2.99641L26.6343 3.51189L24.7098 0.537877Z" fill="#5C6D7D"/>
<path d="M23.6586 14.1693L24.4552 13.6539L26.3797 16.6279L25.5831 17.1434L23.6586 14.1693Z" fill="#5C6D7D"/>
<path d="M30.6431 2.30383L31.5708 2.50262L30.8287 5.96635L29.9009 5.76757L30.6431 2.30383Z" fill="#5C6D7D"/>
<path d="M20.2608 11.1994L21.1886 11.3982L20.4465 14.8619L19.5187 14.6631L20.2608 11.1994Z" fill="#5C6D7D"/>
<path d="M19.2657 3.48459L19.4645 2.5568L22.9282 3.29895L22.7294 4.22673L19.2657 3.48459Z" fill="#5C6D7D"/>
<path d="M28.1613 13.8668L28.3601 12.939L31.8238 13.6812L31.625 14.609L28.1613 13.8668Z" fill="#5C6D7D"/>
<path d="M17.4998 9.41782L16.9843 8.62121L19.9583 6.69675L20.4738 7.49336L17.4998 9.41782Z" fill="#5C6D7D"/>
<path d="M31.1312 10.469L30.6158 9.67242L33.5898 7.74796L34.1052 8.54457L31.1312 10.469Z" fill="#5C6D7D"/>
</g>
<defs>
<clipPath id="clip0">
<rect width="34" height="34" fill="white"/>
</clipPath>
</defs>
</svg>
