<svg width="80" height="80" viewBox="0 0 80 80" fill="none" xmlns="http://www.w3.org/2000/svg">
<path d="M73.3333 0H17.3333C13.6533 0.00433333 10.671 2.98667 10.6667 6.66667V69.3333H1.33333C0.597 69.3333 0 69.9303 0 70.6667V73.3333C0.00433333 77.0133 2.98667 79.9957 6.66667 80H62.6667C66.3467 79.9957 69.329 77.0133 69.3333 73.3333V41.8853L77.6093 33.6093C79.2345 31.9842 79.2345 29.3492 77.6093 27.724C75.9842 26.0988 73.3492 26.0988 71.724 27.724L69.3333 30.1147V10.6667H78.6667C79.403 10.6667 80 10.0697 80 9.33333V6.66667C79.9957 2.98667 77.0133 0.00433333 73.3333 0ZM6.66667 77.3333C4.4575 77.3333 2.66667 75.5425 2.66667 73.3333V72H56V73.3333C56.003 73.7488 56.045 74.163 56.1253 74.5707C56.1493 74.704 56.188 74.8173 56.2187 74.9413C56.2848 75.2128 56.3677 75.48 56.4667 75.7413C56.5187 75.8747 56.5747 76 56.6347 76.128C56.7483 76.371 56.8767 76.607 57.0187 76.8347C57.088 76.9467 57.152 77.06 57.2307 77.1667C57.268 77.2213 57.296 77.2813 57.336 77.3333H6.66667ZM66.6667 73.3333C66.6667 75.5425 64.8758 77.3333 62.6667 77.3333C60.4575 77.3333 58.6667 75.5425 58.6667 73.3333V70.6667C58.6667 69.9303 58.0697 69.3333 57.3333 69.3333H13.3333V6.66667C13.3333 4.4575 15.1242 2.66667 17.3333 2.66667H68C67.96 2.71867 67.932 2.77867 67.8947 2.83333C67.8187 2.94 67.752 3.05333 67.6827 3.16533C67.5407 3.393 67.4123 3.629 67.2987 3.872C67.2387 4.00533 67.1827 4.128 67.1307 4.25867C67.0317 4.52 66.9488 4.78717 66.8827 5.05867C66.852 5.18267 66.8133 5.30267 66.7893 5.42933C66.7098 5.837 66.6688 6.25133 66.6667 6.66667V32.7813L49.724 49.724C49.553 49.895 49.4318 50.1093 49.3733 50.344L48.04 55.6773C47.9267 56.1315 48.0598 56.6117 48.3907 56.9427C48.5032 57.0508 48.6342 57.138 48.7773 57.2C48.812 57.216 48.844 57.2307 48.88 57.244C49.0223 57.2983 49.173 57.3282 49.3253 57.332H49.3333C49.4422 57.3318 49.5505 57.3185 49.656 57.292L54.9893 55.9587C55.224 55.9002 55.4383 55.779 55.6093 55.608L66.6667 44.552V73.3333ZM73.6093 29.6093C74.201 29.0442 75.1323 29.0442 75.724 29.6093C76.3068 30.1937 76.3068 31.1397 75.724 31.724L74.6667 32.7813L72.552 30.6667L73.6093 29.6093ZM70.6667 32.552L72.7813 34.6667L53.9813 53.4667L51.1627 54.172L51.868 51.3533L70.6667 32.552ZM77.3333 8H69.3333V6.66667C69.3333 4.4575 71.1242 2.66667 73.3333 2.66667C75.5425 2.66667 77.3333 4.4575 77.3333 6.66667V8Z" fill="#33485D"/>
<path d="M54.6668 8H25.3335V10.6667H54.6668V8Z" fill="#33485D"/>
<path d="M29.7238 13.7236L27.2798 16.1676C27.0925 16.0615 26.8817 16.0038 26.6665 15.9996H19.9998C19.2635 15.9996 18.6665 16.5966 18.6665 17.333V23.9996C18.6665 24.736 19.2635 25.333 19.9998 25.333H26.6665C27.4028 25.333 27.9998 24.736 27.9998 23.9996V19.2183L31.6092 15.609L29.7238 13.7236ZM25.3332 22.6663H21.3332V18.6663H24.7812L23.0572 20.3903L24.9425 22.2756L25.3332 21.885V22.6663Z" fill="#E67861"/>
<path d="M61.3335 16H33.3335V18.6667H61.3335V16Z" fill="#33485D"/>
<path d="M56.0002 21.3335H33.3335V24.0002H56.0002V21.3335Z" fill="#33485D"/>
<path d="M29.7238 27.0576L27.2798 29.5016C27.0925 29.3955 26.8817 29.3378 26.6665 29.3336H19.9998C19.2635 29.3336 18.6665 29.9306 18.6665 30.667V37.3336C18.6665 38.07 19.2635 38.667 19.9998 38.667H26.6665C27.4028 38.667 27.9998 38.07 27.9998 37.3336V32.5523L31.6092 28.943L29.7238 27.0576ZM25.3332 36.0003H21.3332V32.0003H24.7812L23.0572 33.7243L24.9425 35.6096L25.3332 35.2189V36.0003Z" fill="#E67861"/>
<path d="M61.3335 29.3335H33.3335V32.0002H61.3335V29.3335Z" fill="#33485D"/>
<path d="M56.0002 34.6665H33.3335V37.3332H56.0002V34.6665Z" fill="#33485D"/>
<path d="M29.7238 40.3906L27.2798 42.8346C27.0925 42.7285 26.8817 42.6708 26.6665 42.6666H19.9998C19.2635 42.6666 18.6665 43.2636 18.6665 44V50.6666C18.6665 51.403 19.2635 52 19.9998 52H26.6665C27.4028 52 27.9998 51.403 27.9998 50.6666V45.8853L31.6092 42.276L29.7238 40.3906ZM25.3332 49.3333H21.3332V45.3333H24.7812L23.0572 47.0573L24.9425 48.9426L25.3332 48.552V49.3333Z" fill="#E67861"/>
<path d="M50.6668 42.6665H33.3335V45.3332H50.6668V42.6665Z" fill="#33485D"/>
<path d="M45.3335 48H33.3335V50.6667H45.3335V48Z" fill="#33485D"/>
<path d="M29.7238 53.7241L27.2798 56.1681C27.0925 56.062 26.8817 56.0043 26.6665 56.0001H19.9998C19.2635 56.0001 18.6665 56.5971 18.6665 57.3335V64.0001C18.6665 64.7365 19.2635 65.3335 19.9998 65.3335H26.6665C27.4028 65.3335 27.9998 64.7365 27.9998 64.0001V59.2188L31.6092 55.6095L29.7238 53.7241ZM25.3332 62.6668H21.3332V58.6668H24.7812L23.0572 60.3908L24.9425 62.2761L25.3332 61.8855V62.6668Z" fill="#E67861"/>
<path d="M45.3335 56H33.3335V58.6667H45.3335V56Z" fill="#33485D"/>
<path d="M56.0002 61.3335H33.3335V64.0002H56.0002V61.3335Z" fill="#33485D"/>
</svg>
