<svg width="80" height="80" viewBox="0 0 80 80" fill="none" xmlns="http://www.w3.org/2000/svg">
<g clip-path="url(#clip0)">
<path d="M9.33322 20H6.6665V64H9.33322V20Z" fill="#33485D"/>
<path d="M17.3335 20H13.3335V57.3333H17.3335V20Z" fill="#33485D"/>
<path d="M23.9997 20H21.333V57.3333H23.9997V20Z" fill="#33485D"/>
<path d="M30.6665 20H26.6665V57.3333H30.6665V20Z" fill="#33485D"/>
<path d="M36.0002 20H33.3335V57.3333H36.0002V20Z" fill="#33485D"/>
<path d="M1.33328 8C0.533281 8 0 8.53328 0 9.33328V16H2.66672V10.6667H8V8H1.33328Z" fill="#E67861"/>
<path d="M41.3337 20H38.667V64H41.3337V20Z" fill="#33485D"/>
<path d="M54.6665 50H50.6665V57.3333H54.6665V50Z" fill="#33485D"/>
<path d="M61.3337 50H58.667V57.3333H61.3337V50Z" fill="#33485D"/>
<path d="M68 50H64V57.3333H68V50Z" fill="#33485D"/>
<path d="M73.3332 50H70.6665V64H73.3332V50Z" fill="#33485D"/>
<path d="M2.66672 69.3333V64H0V70.6667C0 71.4667 0.533281 72 1.33328 72H8V69.3333H2.66672Z" fill="#E67861"/>
<path d="M77.3333 64V69.3333H72V72H78.6667C79.4667 72 80 71.4667 80 70.6667V64H77.3333Z" fill="#E67861"/>
<path d="M14.6667 60H12V64H14.6667V60Z" fill="#33485D"/>
<path d="M19.9997 60H17.333V64H19.9997V60Z" fill="#33485D"/>
<path d="M25.3337 60H22.667V64H25.3337V60Z" fill="#33485D"/>
<path d="M30.6667 60H28V64H30.6667V60Z" fill="#33485D"/>
<path d="M36.0002 60H33.3335V64H36.0002V60Z" fill="#33485D"/>
<path d="M46.6667 60H44V64H46.6667V60Z" fill="#33485D"/>
<path d="M52.0002 60H49.3335V64H52.0002V60Z" fill="#33485D"/>
<path d="M57.3332 60H54.6665V64H57.3332V60Z" fill="#33485D"/>
<path d="M62.6667 60H60V64H62.6667V60Z" fill="#33485D"/>
<path d="M68.0002 60H65.3335V64H68.0002V60Z" fill="#33485D"/>
<path d="M48.0002 50H45.3335V57.3333H48.0002V50Z" fill="#33485D"/>
<path d="M75.9146 11.7045L74.9607 5.8044C74.8688 5.23822 74.4253 4.79403 73.8588 4.70212L67.9591 3.74858L63.1118 0.251922C62.6456 -0.0839739 62.0175 -0.0839739 61.551 0.251922L56.7037 3.74858L50.8043 4.70212C50.2378 4.79403 49.7936 5.23822 49.7014 5.8044L48.7482 11.7045L45.2522 16.5521C44.9159 17.0173 44.9159 17.6463 45.2522 18.1115L48.7482 22.9598L49.7014 28.8589C49.7843 29.3308 50.1138 29.7222 50.566 29.8816L46.4731 38.0678C46.2659 38.4809 46.2883 38.9722 46.5316 39.3646C46.7742 39.7576 47.204 39.9966 47.6659 39.9966H52.2859L54.5516 43.4033C54.8003 43.7753 55.2188 43.9976 55.6656 43.9959H55.7478C56.2228 43.9668 56.6459 43.6871 56.8585 43.2619L61.3524 34.264L61.551 34.408C62.0175 34.7439 62.6456 34.7439 63.1118 34.408L63.3103 34.264L67.8046 43.2549C68.0169 43.6797 68.4393 43.9598 68.9129 43.9899L68.9978 43.9959C69.4427 43.9959 69.8591 43.7736 70.1068 43.4033L72.3772 39.9966H76.9975C77.4597 39.9989 77.8919 39.7609 78.1369 39.3676C78.3808 38.9738 78.4039 38.4819 78.197 38.0678L74.1038 29.8816C74.5553 29.7222 74.8852 29.3308 74.9674 28.8589L75.921 22.9598L79.4179 18.1115C79.7545 17.6463 79.7545 17.0173 79.4179 16.5521L75.9146 11.7045ZM55.5005 40.0133L54.1075 37.9234C53.8601 37.5534 53.4444 37.3298 52.9992 37.3298H49.823L53.3036 30.3656L56.7037 30.9147L58.4744 32.1921L59.1623 32.6894L55.5005 40.0133ZM74.8397 37.3298H71.6643C71.2188 37.3298 70.802 37.5534 70.5553 37.9234L69.1626 40.0133L65.5008 32.6894L66.188 32.1921L67.9591 30.9147L71.3591 30.3656L74.8397 37.3298ZM73.569 21.6547C73.4474 21.8221 73.3665 22.0156 73.3337 22.2212L72.4811 27.4815L71.9026 27.5765L67.2244 28.3321C67.0185 28.3656 66.8247 28.4461 66.6559 28.5688L64.9858 29.7686L62.3321 31.6867L59.6796 29.7736L58.0095 28.5738C57.8407 28.4515 57.6469 28.3706 57.441 28.3375L52.7629 27.5821L52.1843 27.4869L51.3331 22.2262C51.2996 22.0216 51.2181 21.8275 51.0964 21.6597L47.9764 17.3321L51.0938 13.0093C51.2157 12.8422 51.297 12.6476 51.3294 12.4431L52.1813 7.1824L57.442 6.33046C57.6472 6.29704 57.8407 6.21616 58.0095 6.09383L62.3321 2.97686L66.6536 6.09383C66.8217 6.21616 67.0159 6.29704 67.2211 6.33046L72.4811 7.1824L73.3337 12.4431C73.3665 12.6476 73.4474 12.8422 73.569 13.0093L76.686 17.3321L73.569 21.6547Z" fill="#E67861"/>
<path d="M62.3324 7.99902C57.1777 7.99902 52.9995 12.1772 52.9995 17.3322C52.9995 22.4863 57.1777 26.6645 62.3324 26.6645C67.4861 26.6645 71.6646 22.4863 71.6646 17.3322C71.6576 12.1805 67.4831 8.00571 62.3324 7.99902ZM62.3324 23.9984C58.6502 23.9984 55.666 21.0134 55.666 17.3322C55.666 13.6508 58.6502 10.6661 62.3324 10.6661C66.0136 10.6661 68.9982 13.6508 68.9982 17.3322C68.9935 21.0117 66.0115 23.9933 62.3324 23.9984Z" fill="#E67861"/>
<path d="M63.0316 13.5309C62.6385 13.2889 62.1482 13.2659 61.7354 13.4721L59.0693 14.8056L60.2612 17.192L60.9988 16.823V21.3317H63.6653V14.6659C63.6639 14.2034 63.4253 13.7739 63.0316 13.5309Z" fill="#E67861"/>
</g>
<defs>
<clipPath id="clip0">
<rect width="80" height="80" fill="white"/>
</clipPath>
</defs>
</svg>
