<svg width="20" height="20" id="icon-user" viewBox="0 0 20 20" fill="none" xmlns="http://www.w3.org/2000/svg">
<path d="M19.9929 9.60697C19.9846 9.3722 19.7964 9.18779 19.5529 9.19673C19.3181 9.20482 19.1346 9.40174 19.1427 9.63654C19.2312 12.1603 18.3178 14.5466 16.5707 16.3557C14.8313 18.1572 12.4966 19.1493 9.99762 19.1493C9.76285 19.1493 9.57227 19.3399 9.57227 19.5746C9.57227 19.8094 9.76281 20 9.99762 20C12.7297 20 15.2813 18.9158 17.1828 16.9467C19.0914 14.9702 20.0893 12.3635 19.9929 9.60697Z" fill="#FFBE48"/>
<path d="M19.9893 9.80713C19.9368 7.06608 18.7944 4.52534 16.7732 2.6539C12.9676 -0.88465 7.00565 -0.88465 3.1998 2.65409C1.18692 4.52788 0.0510577 7.06905 0.00215151 9.8099C-0.046989 12.5509 0.99422 15.1287 2.93375 17.0682C3.01476 17.1495 3.12515 17.1952 3.24019 17.1928C3.35504 17.1911 3.46433 17.1435 3.54324 17.0599C3.66043 16.9363 3.8048 16.7875 3.86179 16.7328C3.88156 16.7188 3.90027 16.7031 3.91793 16.6854L4.85683 15.7467H7.91303C8.2669 15.7467 8.57889 15.5334 8.70799 15.2033C8.83475 14.8797 8.75264 14.5194 8.51151 14.2974C7.68678 13.4724 7.23253 12.3785 7.23253 11.2167V7.55881C7.23253 7.18705 7.37331 6.84998 7.63956 6.58354C7.89839 6.32495 8.25374 6.17651 8.61483 6.17651H11.3582C11.73 6.17651 12.0672 6.31729 12.3335 6.58377C12.5923 6.84217 12.7405 7.19776 12.7405 7.55885V11.2167C12.7405 12.3787 12.2865 13.4729 11.449 14.3108C11.2227 14.5573 11.1666 14.9209 11.3057 15.2372C11.4437 15.5515 11.741 15.7467 12.0813 15.7467H15.3138C15.5486 15.7467 15.7392 15.5561 15.7392 15.3214C15.7392 15.0866 15.5486 14.896 15.3138 14.896L12.0879 14.9009C12.0845 14.8971 12.0813 14.8877 12.0808 14.8809C13.0551 13.8977 13.5912 12.5973 13.5912 11.2167V7.55881C13.5912 6.97377 13.3519 6.39893 12.9349 5.98209C12.5119 5.55889 11.952 5.32581 11.3582 5.32581H8.61479C8.02975 5.32581 7.45491 5.56506 7.03788 5.98209C6.61487 6.4053 6.38179 6.96526 6.38179 7.55881V11.2167C6.38179 12.6056 6.92452 13.9133 7.913 14.896H4.68046C4.56777 14.896 4.45949 14.9409 4.37976 15.0206L3.32261 16.0777C3.29582 16.1001 3.26754 16.1258 3.23711 16.1547C1.65422 14.42 0.810392 12.1892 0.852697 9.82517C0.897579 7.3174 1.93707 4.99171 3.77941 3.27698C7.26011 0.0404263 12.7131 0.0404266 16.1949 3.27741C18.0453 4.99085 19.0909 7.31553 19.1392 9.82326C19.1873 12.3312 18.2358 14.6903 16.4594 16.4667C16.2933 16.6328 16.2933 16.902 16.4594 17.0681C16.5426 17.1513 16.6513 17.1927 16.7601 17.1927C16.869 17.1927 16.9777 17.1513 17.0606 17.0683C19.0019 15.1272 20.0421 12.5484 19.9893 9.80713Z" fill="#FFBE48"/>
</svg>
