<svg width="23" height="18" viewBox="0 0 23 18" fill="none" xmlns="http://www.w3.org/2000/svg">
<path d="M8.10924 14.4708L20.4117 0.967529L22.0358 2.44725L8.22202 17.6094L0.691406 10.4506L2.20546 8.85812L8.10924 14.4708Z" fill="white"/>
</svg>
