<svg width="17" height="17" viewBox="0 0 17 17" xmlns="http://www.w3.org/2000/svg">
<path fill-rule="evenodd" clip-rule="evenodd" d="M1.95099 1.33325C1.50467 0.886964 0.781051 0.886964 0.334736 1.33325C-0.111579 1.77954 -0.111578 2.5032 0.334736 2.94948L6.38377 8.99852L0.334736 15.0475C-0.111578 15.4939 -0.111578 16.2175 0.334736 16.6638C0.781051 17.1101 1.50467 17.1101 1.95099 16.6638L8.80814 9.80665C9.25445 9.36033 9.25445 8.63671 8.80814 8.19039L1.95099 1.33325Z"/>
<path fill-rule="evenodd" clip-rule="evenodd" d="M14.1921 1.33325C14.6384 0.886964 15.362 0.886964 15.8083 1.33325C16.2546 1.77954 16.2546 2.5032 15.8083 2.94948L9.75929 8.99852L15.8083 15.0475C16.2546 15.4939 16.2546 16.2175 15.8083 16.6638C15.362 17.1101 14.6384 17.1101 14.1921 16.6638L7.33493 9.80665C6.88862 9.36033 6.88862 8.63671 7.33493 8.19039L14.1921 1.33325Z"/>
</svg>
