<svg width="151" height="60" viewBox="0 0 151 60" fill="none" xmlns="http://www.w3.org/2000/svg">
<path d="M52.8644 38.8535C52.1481 38.6386 51.2168 39.1401 50.2856 40.1429C49.2828 41.0741 48.2799 42.4351 47.2055 44.011C46.9189 44.3692 46.3459 45.372 45.2714 46.6614C44.1969 47.9508 42.6926 49.5267 40.6153 51.0309C38.538 52.5352 35.9592 53.9679 33.0223 54.8274C30.0854 55.687 26.7187 56.1168 23.4953 55.8303C20.2002 55.6154 16.9768 54.6842 14.1831 53.3232C11.3895 51.9622 9.02565 50.243 7.23485 48.5238C5.44405 46.8763 4.15468 45.2288 3.2951 44.011C2.86531 43.438 2.57878 42.9365 2.43551 42.5784C2.22062 42.2202 2.14899 42.077 2.14899 42.077C2.14899 42.077 2.22062 42.2919 2.43551 42.65C2.57878 43.0082 2.79367 43.5096 3.15183 44.1543C3.86815 45.4437 4.94263 47.2345 6.59017 49.2402C8.2377 51.1742 10.5299 53.2515 13.3236 54.9707C16.1172 56.6182 19.4839 58.0509 23.0655 58.6239C26.6471 59.2686 30.372 59.197 33.8819 58.5523C37.3919 57.836 40.5437 56.5466 43.1224 54.9707C45.7012 53.3948 47.7785 51.6756 49.1395 50.243C50.5722 48.8104 51.4317 47.6642 51.7183 47.1628C53.0076 45.3004 53.6523 43.2947 53.7956 41.7904C53.8672 40.1429 53.5807 39.0684 52.8644 38.8535Z" fill="#F9B224"/>
<path d="M53.6523 17.7221C52.936 16.0029 51.7182 13.5675 49.7125 10.9887C47.7068 8.40997 44.8416 5.83122 41.26 3.82552C39.4692 2.89431 37.5351 1.96309 35.3862 1.39004C32.2344 0.602088 29.0826 0.172297 25.8591 0.31556C21.7761 0.530456 17.7647 1.5333 14.0399 3.3241C7.87951 6.4759 2.93691 11.6334 0.214896 18.0086C0.0716319 18.2952 0 18.5817 0 18.8682C0 19.6562 0.859583 20.086 1.5759 20.3009C2.14896 20.4441 2.79364 20.5158 3.22344 20.2292C3.5816 19.9427 3.72486 19.5129 3.93975 19.0831C4.79934 16.7193 5.94545 14.7852 7.44972 12.7795C8.59583 11.2752 9.81357 9.91424 11.2462 8.69649C14.3264 6.04611 18.0512 4.11205 21.991 3.1092C26.2173 2.03473 30.6585 2.03473 34.9564 2.96594C36.9621 3.39573 38.8245 4.18368 40.6153 4.97163C44.1253 6.6908 47.0622 9.05465 49.1395 11.4185C51.2168 13.7824 52.6494 16.0746 53.4374 17.7937C53.8672 18.5817 54.0821 19.298 54.297 19.7994C54.5119 20.2292 54.5835 20.5158 54.5835 20.5158C54.5835 20.5158 54.5119 20.2292 54.3686 19.7994C54.2254 19.298 54.0105 18.5817 53.6523 17.7221Z" fill="#F9B224"/>
<path d="M150.355 24.0974C149.997 23.3094 149.496 22.7363 148.923 22.3066C148.278 21.8768 147.562 21.5186 146.774 21.3037C145.986 21.0888 145.126 20.9455 144.267 20.9455C143.049 20.9455 142.046 21.0888 141.187 21.3753C140.327 21.6619 139.611 22.02 138.894 22.5215L138.536 22.808L138.178 22.5215C137.533 22.02 136.817 21.6619 135.957 21.3753C135.098 21.0888 134.095 21.0172 133.092 21.0172C131.946 21.0172 130.8 21.1604 129.582 21.5186C128.436 21.8768 127.505 22.3066 126.717 22.808C126.287 23.0945 126.001 23.381 125.714 23.7392C125.499 24.0257 125.427 24.3839 125.427 24.8853V35.7734C125.427 36.2748 125.499 36.7046 125.642 36.9911C125.786 37.2776 125.929 37.4925 126.072 37.6358C126.287 37.779 126.574 37.9223 126.86 37.9223C127.648 38.0656 128.723 38.0656 129.654 37.9223C129.869 37.9223 130.084 37.8507 130.227 37.8507V25.3151L130.585 25.1002C130.8 24.9569 131.086 24.8137 131.445 24.6704C131.803 24.5271 132.304 24.4555 132.806 24.4555C133.594 24.4555 134.238 24.6704 134.811 25.1002C135.456 25.53 135.742 26.2463 135.742 27.1775V35.7734C135.742 36.2748 135.814 36.7046 135.957 36.9911C136.101 37.2776 136.244 37.4925 136.387 37.6358C136.602 37.779 136.889 37.9223 137.175 37.9223C137.963 38.0656 139.038 38.0656 139.969 37.9223C140.184 37.9223 140.399 37.8507 140.613 37.8507V26.103C140.613 26.103 140.613 26.0314 140.613 25.9598L140.542 25.6016L140.828 25.3151C141.043 25.1002 141.401 24.8853 141.903 24.742C142.333 24.5271 142.834 24.4555 143.264 24.4555C144.123 24.4555 144.768 24.6704 145.341 25.1002C145.914 25.53 146.201 26.2463 146.201 27.1775V35.7734C146.201 36.2748 146.272 36.7046 146.416 36.9911C146.559 37.2776 146.702 37.4925 146.845 37.6358C147.06 37.779 147.347 37.9223 147.633 37.9223C148.421 38.0656 149.496 38.0656 150.427 37.9223C150.642 37.9223 150.857 37.8507 151 37.8507V26.9626C150.857 25.8165 150.714 24.8853 150.355 24.0974Z" fill="#34495E"/>
<path d="M120.7 22.9512C119.983 22.3066 119.195 21.8768 118.193 21.5186C117.19 21.1604 116.115 21.0172 114.969 21.0172C113.895 21.0172 112.892 21.1604 111.889 21.5186C110.886 21.8051 110.027 22.3066 109.239 23.0229C108.451 23.6676 107.878 24.5271 107.376 25.6016C106.875 26.6761 106.66 27.9655 106.66 29.3981C106.66 30.9024 106.875 32.2634 107.376 33.3379C107.878 34.4123 108.522 35.3436 109.31 36.1315C110.17 36.8478 111.101 37.4209 112.247 37.779C114.11 38.3521 116.187 38.4954 118.622 38.1372C119.482 37.9939 120.342 37.779 120.986 37.3493C121.774 36.9195 122.132 36.3464 122.132 35.4868C122.132 35.1287 122.061 34.7705 121.846 34.484C121.703 34.2691 121.559 34.0542 121.344 33.9109C120.843 34.1975 120.198 34.4123 119.41 34.6272C118.479 34.9138 117.476 35.057 116.473 35.057C115.327 35.057 114.253 34.8421 113.393 34.4123C112.39 33.9109 111.746 33.1946 111.459 32.2634L111.244 31.5471L120.915 30.1144C121.559 30.0428 122.132 29.8279 122.491 29.4697C122.849 29.1832 122.992 28.6818 122.992 28.0371C122.992 27.0343 122.777 26.103 122.419 25.2435C121.989 24.3122 121.416 23.5243 120.7 22.9512ZM110.958 28.6818L111.029 27.8938C111.029 27.4641 111.173 27.0343 111.316 26.6045C111.459 26.1747 111.746 25.7449 112.032 25.3867C112.39 25.0286 112.749 24.742 113.25 24.4555C113.751 24.2406 114.324 24.0974 115.041 24.0974C116.115 24.0974 116.975 24.3839 117.548 25.0286C118.121 25.6016 118.407 26.1747 118.479 26.8194L118.551 27.4641L110.958 28.6818Z" fill="#34495E"/>
<path d="M103.938 17.4356C103.938 16.9342 103.866 16.5044 103.723 16.2178C103.651 16.1462 103.651 16.0746 103.58 16.0029C103.508 15.8597 103.365 15.7164 103.222 15.5732C103.007 15.4299 102.792 15.3583 102.434 15.2866C101.646 15.1434 100.571 15.1434 99.6399 15.2866L99.3534 15.3583C99.2101 15.3583 99.1385 15.4299 98.9952 15.4299V15.6448C98.9952 15.7881 98.9952 15.9313 98.9952 16.0029V36.0599C98.9952 36.5613 99.0669 36.9911 99.2101 37.2776C99.2818 37.3493 99.2818 37.4209 99.3534 37.4925C99.425 37.6358 99.5683 37.779 99.7116 37.9223C99.9265 38.0656 100.141 38.2088 100.5 38.2088C101.287 38.3521 102.362 38.3521 103.293 38.2088C103.508 38.2088 103.723 38.1372 103.866 38.1372H103.938V37.9223C103.938 37.779 103.938 37.6358 103.938 37.5642V17.4356Z" fill="#34495E"/>
<path d="M93.5512 22.4498C92.8349 21.9484 92.0469 21.5902 91.0441 21.3753C89.3249 20.9455 87.3192 20.8739 85.027 21.1604C84.1674 21.3037 83.3795 21.447 82.7348 21.7335C82.2334 21.9484 81.8752 22.2349 81.6603 22.5215C81.4454 22.808 81.3738 23.1661 81.3738 23.5959C81.3738 23.9541 81.4454 24.3122 81.6603 24.6704C81.732 24.8853 81.8752 25.0286 82.0185 25.1718C82.6632 24.9569 83.3795 24.742 84.0958 24.5988C85.027 24.3839 85.9582 24.3122 86.8895 24.3122C88.1788 24.3122 89.11 24.4555 89.8264 24.8137C90.6859 25.2435 91.1157 25.9598 91.1157 26.891V27.7506L85.815 28.3236C83.8809 28.5385 82.4483 29.04 81.5887 29.8279C80.7291 30.6159 80.2993 31.6903 80.2993 33.1946C80.2993 34.0542 80.4426 34.8421 80.8007 35.4868C81.1589 36.1315 81.6603 36.7046 82.305 37.0627C82.9497 37.4925 83.8093 37.8507 84.7405 38.0656C85.7433 38.2805 86.8178 38.4237 88.0356 38.4237C90.7576 38.4237 92.8349 37.9939 94.2675 37.1344C94.6973 36.8478 95.0555 36.5613 95.342 36.2031C95.5569 35.9166 95.7002 35.5585 95.7002 35.1287V26.891C95.7002 25.8882 95.4853 24.9569 95.1271 24.2406C94.769 23.5243 94.1959 22.9512 93.5512 22.4498ZM91.0441 34.3407L90.7576 34.5556C90.471 34.7705 90.0413 34.9138 89.4682 34.9854C88.9668 35.057 88.4654 35.1287 88.0356 35.1287C86.9611 35.1287 86.2448 34.9138 85.7433 34.5556C85.2419 34.1258 84.9554 33.5528 84.9554 32.9081C84.9554 32.1918 85.3136 31.6187 85.9582 31.2605C86.4597 30.974 87.1043 30.8308 87.8923 30.7591L91.1874 30.4726V34.3407H91.0441Z" fill="#34495E"/>
<path d="M77.2909 34.2691H68.6234L76.2164 25.8882C76.5029 25.53 76.7894 25.1718 76.9327 24.742C77.1476 24.3839 77.2192 23.9541 77.2192 23.5959C77.2192 23.0945 77.1476 22.6647 76.9327 22.3066C76.7894 22.02 76.5745 21.7335 76.3596 21.447H64.1822C63.7524 21.447 63.3943 21.5902 63.1794 21.8051C62.9645 22.02 62.8212 22.5215 62.8212 23.1661C62.8212 23.5959 62.8929 23.9541 62.9645 24.3122C63.0361 24.5271 63.1077 24.742 63.1794 24.8853H71.4887L63.6092 33.3379C63.3226 33.696 63.1077 34.0542 62.8929 34.484C62.678 34.8421 62.6063 35.2719 62.6063 35.6301C62.6063 36.1315 62.678 36.5613 62.8929 36.9195C63.0361 37.206 63.251 37.4925 63.4659 37.779H76.288C76.7178 37.779 77.076 37.6358 77.2909 37.4209C77.5058 37.206 77.649 36.7046 77.649 36.0599C77.649 35.6301 77.5774 35.2719 77.5058 34.9138C77.4341 34.6272 77.3625 34.484 77.2909 34.2691Z" fill="#34495E"/>
<path d="M40.6869 17.364H11.1029C10.1001 17.364 9.24048 18.2235 9.24048 19.2264C9.24048 20.2292 10.1001 21.0888 11.1029 21.0888H40.6869C40.9018 21.0888 41.045 21.2321 41.1883 21.3753C41.2599 21.5186 41.3316 21.7335 41.2599 21.8768L38.9677 27.1775C38.4663 28.252 37.4634 29.04 36.2457 29.1832L17.4065 30.9024C16.0455 31.0456 14.8278 31.8336 14.1831 32.9797C13.4668 34.1258 13.3951 35.5585 13.9682 36.8478L14.2547 37.5641C15.2576 39.8564 17.5498 41.3606 20.1285 41.3606H34.4549C35.4578 41.3606 36.3173 40.5011 36.3173 39.4982C36.3173 38.4954 35.4578 37.6358 34.4549 37.6358H20.1285C19.054 37.6358 18.0512 36.9911 17.6214 35.9882L17.3349 35.2719C17.2633 35.057 17.3349 34.9138 17.3349 34.7705C17.4065 34.6272 17.5498 34.5556 17.7647 34.484L36.5322 32.7648C39.0393 32.5499 41.2599 30.974 42.2628 28.6102L44.555 23.3094C45.1281 22.02 44.9848 20.5158 44.1968 19.298C43.4805 18.0803 42.1195 17.364 40.6869 17.364Z" fill="#34495E"/>
<path d="M19.9137 43.2947C18.4095 43.2947 17.1917 44.5124 17.1917 46.0167C17.1917 47.521 18.4095 48.7387 19.9137 48.7387C21.418 48.7387 22.6357 47.521 22.6357 46.0167C22.6357 44.5124 21.418 43.2947 19.9137 43.2947Z" fill="#34495E"/>
<path d="M32.7356 43.2947C31.2314 43.2947 30.0136 44.5124 30.0136 46.0167C30.0136 47.521 31.2314 48.7387 32.7356 48.7387C34.2399 48.7387 35.4576 47.521 35.4576 46.0167C35.4576 44.5124 34.2399 43.2947 32.7356 43.2947Z" fill="#34495E"/>
</svg>
